{
	"name":"",
	"children":[
		{
			"name":"早稲田大学",
			"children":[
				{"name":"祭","size":30},
				{"name":"今年","size":20},
				{"name":"AKB","size":30},
				{"name":"雨","size":5},
				{"name":"傘","size":5}
			]
		},
		{
			"name":"慶応大学",
			"children":[
				{"name":"テスト","size":30.0},
				{"name":"課題","size":20.0},
				{"name":"雨","size":10.0},
				{"name":"雷","size":25.0},
				{"name":"傘","size":5},
				{"name":"停電","size":25.0}
			]
		},
		{
			"name":"上智大学",
			"children":[
				{"name":"火災","size":20.0},
				{"name":"爆発","size":20.0},
				{"name":"音","size":10.0}
			]
		}
	]
}